{
    "inbound-thread-pool-size": 2,
    "blasters-thread-pool-size": -1,
    "endpoint": {
        "name": "Jetty",
        "port": 8081,
        "backlog": 1000
    },
    "socket-conditioning": {
        "input-buffer-size": "8k",
        "output-buffer-size": "8k",
        "keep-alive": "true",
        "reuse-address": true,
        "so-linger": 0,
        "no-delay" : true
    },
    "performance-preferences": {
        "connection-time": 0,
        "latency": 1,
        "bandwidth": 2
    }
}
